// Jest Snapshot v1, https://goo.gl/fbAQLP

exports[`Grid should render 1`] = `
<div
  className="watchlist-grid ag-theme-balham-dark"
  style={
    Object {
      "height": "300px",
      "width": "100%",
    }
  }
>
  <AgGridReact
    columnDefs={
      Array [
        Object {
          "checkboxSelection": true,
          "field": "symbol",
          "headerName": "Symbol",
        },
        Object {
          "field": "price_open",
          "headerName": "Open",
          "valueFormatter": [Function],
        },
        Object {
          "field": "close_yesterday",
          "headerName": "Close",
          "valueFormatter": [Function],
        },
        Object {
          "field": "day_high",
          "headerName": "High",
          "valueFormatter": [Function],
        },
        Object {
          "field": "day_low",
          "headerName": "Low",
          "valueFormatter": [Function],
        },
        Object {
          "field": "volume",
          "headerName": "Volume",
          "valueFormatter": [Function],
        },
      ]
    }
    modules={
      Array [
        Object {
          "beans": Array [
            [Function],
            [Function],
            [Function],
            [Function],
            [Function],
            [Function],
          ],
          "moduleName": "@ag-grid-community/client-side-row-model",
          "rowModels": Object {
            "clientSide": [Function],
          },
        },
        Object {
          "moduleName": "@ag-grid-community/infinite-row-model",
          "rowModels": Object {
            "infinite": [Function],
          },
        },
        Object {
          "beans": Array [
            [Function],
            [Function],
            [Function],
            [Function],
            [Function],
          ],
          "moduleName": "@ag-grid-community/csv-export",
        },
      ]
    }
    onGridReady={[Function]}
    onGridSizeChanged={[Function]}
    onRowClicked={[Function]}
    onSelectionChanged={[Function]}
    rowSelection="multiple"
    suppressRowClickSelection={true}
  />
  <Connect(Overlay) />
</div>
`;
