// Jest Snapshot v1, https://goo.gl/fbAQLP

exports[`Header should render 1`] = `
<nav
  className="navbar navbar-dark bg-dark"
>
  <span
    className="navbar-brand mb-0 h1"
  >
    Watchlist Dashboard
  </span>
</nav>
`;
